<svg id="Brand_-_Mark_-_White" data-name="Brand - Mark - White" xmlns="http://www.w3.org/2000/svg" width="17.381" height="23.622" viewBox="0 0 17.381 23.622">
  <path id="Path_18" data-name="Path 18" d="M14.218,12.186a.014.014,0,0,1-.005-.019l.179-.307a6.528,6.528,0,0,0-5.7-9.792,6.528,6.528,0,0,0-5.7,9.791h0l4.2,7.215a1.022,1.022,0,0,1,0,1.031,1.054,1.054,0,0,1-1.815,0l-4.2-7.215h0A8.6,8.6,0,0,1,8.69,0a8.6,8.6,0,0,1,7.517,12.889h0L10.489,22.71a1.735,1.735,0,0,1-.783.818c-1.136.446-1.651-.779-1.039-1.824l5.556-9.5A.014.014,0,0,0,14.218,12.186Zm-5.236,9.4Z" transform="translate(0 0)" fill-rule="evenodd"/>
  <path id="Path_19" data-name="Path 19" d="M31.862,37.486l.024.041L33.6,40.458a1.325,1.325,0,0,1,0,1.348.935.935,0,0,1-1.6,0h0l-3.187-5.365a4.533,4.533,0,1,1,7.97,0l-.659,1.11a1.054,1.054,0,0,1-1.81-.006,1.022,1.022,0,0,1,0-1.04l.659-1.11h0a2.453,2.453,0,1,0-4.358,0s0,0,0,0Z" transform="translate(-24.109 -25.615)"/>
  <path id="Path_20" data-name="Path 20" d="M38.547,104.893A1.066,1.066,0,0,1,40,104.508a1.047,1.047,0,0,1,.388,1.436l-2.347,4.03a1.066,1.066,0,0,1-1.449.385,1.046,1.046,0,0,1-.388-1.436Z" transform="translate(-30.835 -89.865)"/>
</svg>
