<svg xmlns="http://www.w3.org/2000/svg" width="36.432" height="26.73" viewBox="0 0 36.432 26.73">
  <path id="Path_180" data-name="Path 180" d="M-40.392-64.944a6,6,0,0,0,6.237,6.336,3.727,3.727,0,0,0,1.98-.495c-.1,4.455-3.168,9.009-7.623,10v4.752c5.742-.693,13.662-5.742,13.662-18.018,0-5.742-3.564-8.712-7.524-8.712A6.445,6.445,0,0,0-40.392-64.944Zm22.176,0a6,6,0,0,0,6.237,6.336A3.727,3.727,0,0,0-10-59.1c-.1,4.455-3.168,9.009-7.623,10v4.752C-11.88-45.045-3.96-50.094-3.96-62.37c0-5.742-3.564-8.712-7.524-8.712A6.445,6.445,0,0,0-18.216-64.944Z" transform="translate(-3.96 -44.352) rotate(180)" fill="#0984e3"/>
</svg>
