<svg xmlns="http://www.w3.org/2000/svg" width="64" height="64" viewBox="0 0 64 64">
  <path id="envelope-open-text-solid" d="M22,27H42a2,2,0,0,0,2-2V23a2,2,0,0,0-2-2H22a2,2,0,0,0-2,2v2A2,2,0,0,0,22,27ZM20,37a2,2,0,0,0,2,2H42a2,2,0,0,0,2-2V35a2,2,0,0,0-2-2H22a2,2,0,0,0-2,2ZM32,52.139a9.986,9.986,0,0,1-5.858-1.9L0,31.355V58a6,6,0,0,0,6,6H58a6,6,0,0,0,6-6V31.355L37.857,50.24A9.994,9.994,0,0,1,32,52.139ZM61.7,20.366c-1.106-.868-2.155-1.684-3.7-2.851V12a6,6,0,0,0-6-6H42.306l-1.13-.82C39.075,3.644,34.9-.046,32,0c-2.9-.044-7.074,3.646-9.176,5.18L21.694,6H12a6,6,0,0,0-6,6v5.517C4.454,18.681,3.405,19.5,2.3,20.366A6,6,0,0,0,0,25.087v1.331l12,8.669V12H52v23.09l12-8.669V25.087a6,6,0,0,0-2.3-4.721Z" transform="translate(0 0.003)" fill="#c39e47"/>
</svg>
