<svg id="Ministry-of-Labor-and-Social-Development" xmlns="http://www.w3.org/2000/svg" width="81.395" height="64.476" viewBox="0 0 81.395 64.476">
  <path id="Path_101" data-name="Path 101" d="M692.351,523.3l-.051.041v.763l.051.051h.763l.051-.051v-.763l-.051-.041h-.763" transform="translate(-632.034 -488.698)" fill="#006a3b"/>
  <path id="Path_102" data-name="Path 102" d="M672.959,539.373l-.081.02v4.464a1.08,1.08,0,0,1-1.068,1.22,1.18,1.18,0,0,1-1.017-.407l-.041-.02-.132.071-.02.051a1.334,1.334,0,0,0,1.241.874c.854,0,1.79-.386,1.79-1.973v-4.423l-.041-.051-.63.173" transform="translate(-612.54 -502.981)" fill="#006a3b"/>
  <path id="Path_103" data-name="Path 103" d="M600.013,524.154l.051-.051v-.763l-.051-.041h-.763l-.051.041v.763l.051.051h.763" transform="translate(-548.4 -488.698)" fill="#006a3b"/>
  <path id="Path_104" data-name="Path 104" d="M586.113,524.154l.051-.051v-.763l-.051-.041h-.763l-.051.041v.763l.051.051h.763" transform="translate(-535.914 -488.698)" fill="#006a3b"/>
  <path id="Path_105" data-name="Path 105" d="M582.638,539.6a1.779,1.779,0,0,0-3.539,0v1.586a1.779,1.779,0,0,0,3.539,0V539.6m-.742,1.434a1.029,1.029,0,1,1-2.054,0v-1.281a1.028,1.028,0,1,1,2.054,0Z" transform="translate(-530.344 -501.904)" fill="#006a3b"/>
  <path id="Path_106" data-name="Path 106" d="M661.281,513.863l-.041.01-.041.041v7.036a1.608,1.608,0,0,0,.742-1.19v-6.02l-.061-.041-.6.163" transform="translate(-604.096 -480.074)" fill="#006a3b"/>
  <path id="Path_107" data-name="Path 107" d="M615.779,539.363l-.081.02v4.474a1.089,1.089,0,0,1-1.068,1.23,1.18,1.18,0,0,1-1.017-.417l-.051-.02-.142.071-.02.051a1.334,1.334,0,0,0,1.241.874c.854,0,1.79-.386,1.79-1.973v-4.423l-.041-.051-.61.163" transform="translate(-561.156 -502.981)" fill="#006a3b"/>
  <path id="Path_108" data-name="Path 108" d="M718.8,538.122l-.61.163A2.525,2.525,0,0,0,717.13,538a1.67,1.67,0,0,0-1.83,1.6v1.566a1.517,1.517,0,0,0,1.566,1.617,1.242,1.242,0,0,0,1.281-.722l-.051.407v.315a1.08,1.08,0,0,1-1.068,1.22,1.17,1.17,0,0,1-1.017-.407l-.051-.02-.132.071-.02.051a1.334,1.334,0,0,0,1.24.874c.854,0,1.79-.386,1.79-1.973v-4.423l-.041-.051m-.691,3.782a1.528,1.528,0,0,1-.925.214,1.036,1.036,0,0,1-1.139-1.078v-1.281a1.055,1.055,0,0,1,1.108-1.088.858.858,0,0,1,.946.976V541.9Z" transform="translate(-652.695 -501.904)" fill="#006a3b"/>
  <path id="Path_109" data-name="Path 109" d="M543.381,513.863l-.041.01-.041.041v7.036a1.608,1.608,0,0,0,.742-1.19v-6.02l-.061-.041-.6.163" transform="translate(-498.184 -480.074)" fill="#006a3b"/>
  <path id="Path_110" data-name="Path 110" d="M353.181,513.561l-.041-.041-.61.163-.041.01-.041.041v6.019l.081.275h-5.094a.475.475,0,0,1-.244-.366V517.74c0-.712.4-1.088.966-1.088H349a2.107,2.107,0,0,1,1.047.254l.051-.031.03-.122a1.171,1.171,0,0,0-1.22-.773h-.763a1.537,1.537,0,0,0-1.678,1.6v1.637a.942.942,0,0,0,.346.8h-2.989v-1.24a1.779,1.779,0,0,0-3.538,0v1.24H337.4v-6.467l-.051-.051-.61.173-.041.01-.041.041v6.67a1.289,1.289,0,0,1-1.464,1.474c-1.6,0-1.495-1.332-1.495-1.332a2.153,2.153,0,0,1,.041-.478,1.728,1.728,0,0,1,.193-.539l-.02-.061-.091-.041-.061.02a2.189,2.189,0,0,0-.478,1.342,1.689,1.689,0,0,0,1.932,1.779c2.166,0,2.166-1.79,2.166-1.79h3.02a1.918,1.918,0,0,0,3.294,0h9.039l.62-.142.051-.051-.234-.813.01-6.2m-10.087,6.4a.963.963,0,0,1-1.037,1.088.951.951,0,0,1-1.027-1.088V518.94a.943.943,0,0,1,1.027-1.078.955.955,0,0,1,1.037,1.078Z" transform="translate(-309.519 -479.895)" fill="#006a3b"/>
  <path id="Path_111" data-name="Path 111" d="M393.631,812.1l-.031.031v.447l.031.031h.447l.02-.031v-.447l-.02-.031h-.447" transform="translate(-363.706 -748.133)" fill="#8a6d43"/>
  <path id="Path_112" data-name="Path 112" d="M129.431,812.1l-.031.031v.447l.031.031h.447l.031-.031v-.447l-.031-.031h-.447" transform="translate(-126.37 -748.133)" fill="#8a6d43"/>
  <path id="Path_113" data-name="Path 113" d="M385.53,812.1l-.03.031v.447l.03.031h.447l.02-.031v-.447l-.02-.031h-.447" transform="translate(-356.43 -748.133)" fill="#8a6d43"/>
  <path id="Path_114" data-name="Path 114" d="M137.53,812.1l-.03.031v.447l.03.031h.447l.02-.031v-.447l-.02-.031h-.447" transform="translate(-133.646 -748.133)" fill="#8a6d43"/>
  <path id="Path_115" data-name="Path 115" d="M424.92,812.1l-.02.031v.447l.02.031h.447l.031-.031v-.447l-.031-.031h-.447" transform="translate(-391.823 -748.133)" fill="#8a6d43"/>
  <path id="Path_116" data-name="Path 116" d="M445.911,765.02l-.031-.02-.356.092-.02.01-.02.02v3.508l.051.163h-3.162a.3.3,0,0,1-.142-.214v-1.118a.553.553,0,0,1,.569-.63h.488a1.3,1.3,0,0,1,.61.142l.031-.01.02-.071a.674.674,0,0,0-.712-.447h-.447a.894.894,0,0,0-.976.925v.956a.547.547,0,0,0,.2.468h-2.247v-2.257l-.031-.02-.356.091-.051.01v2.6c0,.407-.214.712-.62.712a.67.67,0,0,1-.59-.244l-.03-.01-.081.041-.01.03a.931.931,0,0,0,.834.508c.478,0,.895-.214.935-1.047h5.908l.366-.092.031-.03-.132-.468-.03-3.6" transform="translate(-403.591 -705.822)" fill="#8a6d43"/>
  <path id="Path_117" data-name="Path 117" d="M524.051,765.092l-.02.01-.031.02v4.1a.919.919,0,0,0,.427-.691V765.02l-.02-.02-.356.092" transform="translate(-480.847 -705.822)" fill="#8a6d43"/>
  <path id="Path_118" data-name="Path 118" d="M360.75,777.585l-.031-.02-.356.092-.02.01-.03.03v1.993l.051.163h-2.206a.51.51,0,0,1-.58-.58v-1.678l-.031-.02-.356.091-.02.01-.031.031v1.576a.51.51,0,0,1-.58.58h-1.607a.51.51,0,0,1-.58-.58V777.4l-.03-.03-.356.091a1.515,1.515,0,0,0-.62-.163.976.976,0,0,0-1.068.925v.915a.88.88,0,0,0,.915.935.753.753,0,0,0,.752-.417h0a.77.77,0,0,0,.783.63h1.993a.792.792,0,0,0,.61-.264.777.777,0,0,0,.61.264h2.522l.366-.092.03-.03-.132-.468v-2.115m-6.8,1.963a.914.914,0,0,1-.539.122.6.6,0,0,1-.661-.63V778.3a.613.613,0,0,1,.651-.63.5.5,0,0,1,.549.569Z" transform="translate(-326.605 -716.871)" fill="#8a6d43"/>
  <path id="Path_119" data-name="Path 119" d="M366.268,767.9l.03-.031v-.437l-.03-.031h-.447l-.02.031v.437l.02.031h.447" transform="translate(-338.733 -707.978)" fill="#8a6d43"/>
  <path id="Path_120" data-name="Path 120" d="M358.168,767.9l.03-.031v-.437l-.03-.031h-.447l-.02.031v.437l.02.031h.447" transform="translate(-331.456 -707.978)" fill="#8a6d43"/>
  <path id="Path_121" data-name="Path 121" d="M105.468,767.9l.031-.031v-.437l-.031-.031h-.447l-.02.031v.437l.02.031h.447" transform="translate(-104.451 -707.978)" fill="#8a6d43"/>
  <path id="Path_122" data-name="Path 122" d="M113.568,767.9l.03-.031v-.437l-.03-.031h-.447l-.02.031v.437l.02.031h.447" transform="translate(-111.727 -707.978)" fill="#8a6d43"/>
  <path id="Path_123" data-name="Path 123" d="M203.739,765.02l-.03-.02-.356.092-.02.01-.031.02v3.508l.041.163h-1.159a2.6,2.6,0,0,1-.712-.1,1.161,1.161,0,0,0,.061-.4v-1.444h-.01l-.041-.031-.346.091-.02.01-.01.01V768.2a.539.539,0,0,1-.569.62,2.757,2.757,0,0,1-.559-.122,1.387,1.387,0,0,0,.061-.376V766.83l-.031-.031-.346.092-.02.01-.02.02h0v1.261c0,.458-.214.63-.519.63a3.3,3.3,0,0,1-.549-.122V766.83l-.041-.031-.346.092-.02.01-.02.02v1.647l-.051.193h-3.05a.274.274,0,0,1-.142-.214V767.43a.553.553,0,0,1,.569-.63h.488a1.3,1.3,0,0,1,.61.142l.03-.01.01-.071a.687.687,0,0,0-.712-.447h-.447a.889.889,0,0,0-.976.925v.956a.559.559,0,0,0,.2.468h-1.779c-.193,0-.264-.031-.315-.081V766.5l-.02-.02-.356.091a1.449,1.449,0,0,0-.62-.173.976.976,0,0,0-1.068.925v.915a.894.894,0,0,0,.915.946.734.734,0,0,0,.742-.417l-.031.234v.183a.627.627,0,0,1-.63.712.67.67,0,0,1-.59-.244l-.031-.01-.081.041-.01.031a.921.921,0,0,0,.834.508c.488,0,.915-.224.935-1.108a1.033,1.033,0,0,0,.376.071h5.389l.031-.02.153-.417a.712.712,0,0,0,.752.437.677.677,0,0,0,.661-.4.828.828,0,0,0,.783.4.775.775,0,0,0,.7-.4.813.813,0,0,0,.742.4h1.322l.366-.092.031-.03-.132-.468V765.02m-11.592,3.691a.914.914,0,0,1-.539.122.608.608,0,0,1-.661-.63v-.753a.613.613,0,0,1,.651-.63.5.5,0,0,1,.549.569Z" transform="translate(-181.257 -705.822)" fill="#8a6d43"/>
  <path id="Path_124" data-name="Path 124" d="M104.572,777.495l-.03-.02-.356.092-.02.01-.031.03V779.6l.041.163h-1.932a.51.51,0,0,1-.58-.58V777.3l-.031-.031-.356.092a1.515,1.515,0,0,0-.62-.163.962.962,0,0,0-1.057.925v.915a.88.88,0,0,0,.915.935.785.785,0,0,0,.763-.417h0a.77.77,0,0,0,.783.63H104.3l.366-.091.02-.031-.132-.468.02-2.1m-3.325.834v1.139a.886.886,0,0,1-.539.122.6.6,0,0,1-.661-.63v-.752a.613.613,0,0,1,.651-.63.5.5,0,0,1,.549.569Z" transform="translate(-99.6 -716.781)" fill="#8a6d43"/>
  <path id="Path_125" data-name="Path 125" d="M158.1,780.125a.894.894,0,0,0-.976-.925h-.447a.674.674,0,0,0-.712.447l.02.071.03.01a1.22,1.22,0,0,1,.61-.142h.488c.336,0,.559.224.559.63v1.169l.051.163h-1.413a2.263,2.263,0,0,1-.773-.122l-.041.081a.814.814,0,0,0,.763.468h1.586l.366-.091.03-.031-.132-.468v-1.261" transform="translate(-149.816 -718.578)" fill="#8a6d43"/>
  <path id="Path_126" data-name="Path 126" d="M328.951,765.092l-.02.01-.031.02v4.1a.919.919,0,0,0,.427-.691V765.02l-.041-.02-.335.092" transform="translate(-305.585 -705.822)" fill="#8a6d43"/>
  <path id="Path_127" data-name="Path 127" d="M553.278,767.9l.02-.031v-.437l-.02-.031h-.447l-.03.031v.437l.03.031h.447" transform="translate(-506.718 -707.978)" fill="#8a6d43"/>
  <path id="Path_128" data-name="Path 128" d="M561.378,767.9l.03-.031v-.437l-.03-.031h-.447l-.031.031v.437l.031.031h.447" transform="translate(-513.995 -707.978)" fill="#8a6d43"/>
  <path id="Path_129" data-name="Path 129" d="M746.2,765l-.346.092-.02.01-.031.02v4.1a.919.919,0,0,0,.427-.691V765.02L746.2,765" transform="translate(-680.094 -705.822)" fill="#8a6d43"/>
  <path id="Path_130" data-name="Path 130" d="M566.909,765.02l-.03-.02-.356.092-.02.01-.02.02v3.508l.041.163h-1.647v-.722a1.031,1.031,0,0,0-2.054,0v.722h-1.637v-.722a1.031,1.031,0,0,0-2.054,0v.722H558c-.315,0-.58-.122-.58-.59V765.02l-.02-.02-.356.092-.02.01-.031.02V768.2a.518.518,0,0,1-.58.59h-1.525a.547.547,0,0,0,.2-.468v-.6a.894.894,0,0,0-.976-.925h-1.993c-.346,0-.5-.163-.5-.529v-.234c.01-.346.163-.5.5-.5h.295a1.3,1.3,0,0,1,.61.142l.031-.01.01-.071a.686.686,0,0,0-.712-.447h-.234a.827.827,0,0,0-.925.834v.366a.827.827,0,0,0,.925.834H554.1c.336,0,.559.224.559.63v.763a.3.3,0,0,1-.142.214h-4.26c-.315,0-.58-.122-.58-.59v-.742h0v-1.129l-.031-.031-.356.1a1.456,1.456,0,0,0-.62-.163.976.976,0,0,0-1.068.925v.915a.885.885,0,0,0,.915.935.753.753,0,0,0,.752-.417h0a.771.771,0,0,0,.783.62h6.518a.763.763,0,0,0,.61-.264.792.792,0,0,0,.61.264h1.383a1.107,1.107,0,0,0,1.912,0h1.81a1.106,1.106,0,0,0,1.912,0h1.851l.366-.081.031-.031-.132-.468v-3.62m-17.682,2.349v1.139a.885.885,0,0,1-.539.122.6.6,0,0,1-.661-.63v-.753a.613.613,0,0,1,.651-.63.5.5,0,0,1,.549.569Zm11.51,1.383a.6.6,0,1,1-1.2,0v-.59a.6.6,0,1,1,1.2,0Zm3.7,0a.6.6,0,1,1-1.2,0v-.59a.6.6,0,1,1,1.2,0Z" transform="translate(-502.047 -705.822)" fill="#8a6d43"/>
  <path id="Path_131" data-name="Path 131" d="M718.8,665.222l-.61.163a2.524,2.524,0,0,0-1.057-.285,1.67,1.67,0,0,0-1.83,1.6v1.566a1.517,1.517,0,0,0,1.566,1.617,1.242,1.242,0,0,0,1.281-.722l-.051.407v.315a1.08,1.08,0,0,1-1.068,1.22,1.17,1.17,0,0,1-1.017-.407l-.051-.02-.132.071-.02.051a1.334,1.334,0,0,0,1.24.874c.854,0,1.79-.386,1.79-1.973v-4.423l-.041-.051M718.106,669a1.528,1.528,0,0,1-.925.214,1.036,1.036,0,0,1-1.139-1.078v-1.281a1.055,1.055,0,0,1,1.108-1.088.858.858,0,0,1,.946.976V669Z" transform="translate(-652.695 -616.08)" fill="#006a3b"/>
  <path id="Path_132" data-name="Path 132" d="M119.4,646.544l.051-.041v-.763l-.051-.041h-.752l-.051.041v.763l.051.041h.752" transform="translate(-116.668 -598.653)" fill="#006a3b"/>
  <path id="Path_133" data-name="Path 133" d="M106.6,646.544l.041-.041v-.763l-.041-.041h-.763l-.041.041v.763l.041.041h.763" transform="translate(-105.17 -598.653)" fill="#006a3b"/>
  <path id="Path_134" data-name="Path 134" d="M111.524,666.654a2.862,2.862,0,0,1-.315.081.859.859,0,0,1-.244.041h-1.047a1.031,1.031,0,0,1-.763-.274,1.124,1.124,0,0,1-.264-.8v-1.159a1.124,1.124,0,0,1,.264-.8,1,1,0,0,1,.763-.275,1.034,1.034,0,0,1,.742.264,1.087,1.087,0,0,1,.285.763l.041.051h.651l.041-.051v-.1a1.6,1.6,0,0,0-.132-.681,1.51,1.51,0,0,0-.366-.5,1.649,1.649,0,0,0-.559-.3,2.473,2.473,0,0,0-1.4,0,1.649,1.649,0,0,0-.559.3,1.413,1.413,0,0,0-.366.5,1.6,1.6,0,0,0-.132.681v1.464a1.534,1.534,0,0,0,.275.925h-2.4v-3.864l-.041-.041-.641.091-.041.061v3.762h-2.145v-3.8l-.041-.051-.6.163c-.1-.051-.214-.091-.315-.132a2.637,2.637,0,0,0-.336-.1,1.75,1.75,0,0,0-.4-.041,2,2,0,0,0-.661.1,1.6,1.6,0,0,0-.529.3,1.39,1.39,0,0,0-.356.5,1.769,1.769,0,0,0-.132.681v1.556a1.618,1.618,0,0,0,.407,1.2,1.372,1.372,0,0,0,1.007.407,1.849,1.849,0,0,0,.58-.081,1.605,1.605,0,0,0,.376-.2,1.437,1.437,0,0,0,.214-.234,2.043,2.043,0,0,0,.1-.183l-.041.488v.2H110.7a1.56,1.56,0,0,0,.519-.071,1.54,1.54,0,0,0,.366-.183.723.723,0,0,0,.224-.244,2.408,2.408,0,0,0,.132-.346l-.041-.152a1.453,1.453,0,0,0-.376.091m-9.09.03c-.041.01-.1.031-.183.051s-.173.051-.264.071-.183.041-.264.061a.9.9,0,0,1-.2.031,1.462,1.462,0,0,1-.376-.051.886.886,0,0,1-.315-.183.8.8,0,0,1-.214-.336,1.46,1.46,0,0,1-.081-.5v-1.281a1.123,1.123,0,0,1,.264-.8.911.911,0,0,1,.691-.275.846.846,0,0,1,.946.966Z" transform="translate(-99.78 -614.014)" fill="#006a3b"/>
  <path id="Path_135" data-name="Path 135" d="M302.3,646.444l.051-.041v-.763l-.051-.041h-.752l-.051.041v.763l.051.041h.752" transform="translate(-280.971 -598.563)" fill="#006a3b"/>
  <path id="Path_136" data-name="Path 136" d="M315.2,646.444l.041-.041v-.763l-.041-.041h-.763l-.041.041v.763l.041.041h.763" transform="translate(-292.559 -598.563)" fill="#006a3b"/>
  <path id="Path_137" data-name="Path 137" d="M348.741,720.7l-.041.051v.753l.041.051h.763l.041-.051v-.753l-.041-.051h-.763" transform="translate(-323.371 -666.026)" fill="#006a3b"/>
  <path id="Path_138" data-name="Path 138" d="M241.145,643.94v-1.9a1.6,1.6,0,0,0-.132-.681,1.509,1.509,0,0,0-.366-.5,1.649,1.649,0,0,0-.559-.3,2.209,2.209,0,0,0-.7-.1h-.671a1.622,1.622,0,0,0-.529.071,1.364,1.364,0,0,0-.366.183.928.928,0,0,0-.244.244,1.073,1.073,0,0,0-.132.264l.041.153c.132-.051.254-.091.376-.132l.305-.092a.869.869,0,0,1,.254-.041h.976a1.069,1.069,0,0,1,.763.264,1.124,1.124,0,0,1,.264.8v2.206l.01.041H235.4v-3.864l-.041-.041-.641.091-.041.051v3.762h-2.054v-1.241a1.779,1.779,0,0,0-3.538,0v1.241h-1.159a.754.754,0,0,1-.63-.275,1.083,1.083,0,0,1-.275-.8v-5.4l-.041-.041-.641.091-.041.051v5.521a1.6,1.6,0,0,0,.132.681,1.372,1.372,0,0,0,.366.488,1.557,1.557,0,0,0,.559.305,1.615,1.615,0,0,0,.6.1h1.261a1.918,1.918,0,0,0,3.294,0h8.3l.549-.081.041-.051-.224-.8v-.264m-9.3.407a.963.963,0,0,1-1.037,1.088.951.951,0,0,1-1.027-1.088V643.33a.943.943,0,0,1,1.027-1.078.955.955,0,0,1,1.037,1.078Z" transform="translate(-213.417 -591.646)" fill="#006a3b"/>
  <path id="Path_139" data-name="Path 139" d="M385.354,638l-.051.051v5.277a1.084,1.084,0,0,1-.275.8,1.006,1.006,0,0,1-.752.275h-.315l-.081-.285v-6.182l-.041-.041-.641.091-.041.051v6.324l.02.041h-.7a.865.865,0,0,1-.254-.041c-.1-.03-.2-.061-.305-.081-.112-.041-.244-.081-.376-.132l-.041.153a1.121,1.121,0,0,0,.122.336,1.02,1.02,0,0,0,.234.234,1.52,1.52,0,0,0,.874.264h1.546a2.209,2.209,0,0,0,.7-.1,1.648,1.648,0,0,0,.559-.305,1.469,1.469,0,0,0,.366-.488,1.6,1.6,0,0,0,.132-.681v-5.623l-.041-.041-.641.1" transform="translate(-352.836 -591.646)" fill="#006a3b"/>
  <path id="Path_140" data-name="Path 140" d="M440.451,638.091l-.051.051v6.975l.041.041h.651l.041-.041v-7.087l-.041-.03-.641.091" transform="translate(-405.747 -591.735)" fill="#006a3b"/>
  <path id="Path_141" data-name="Path 141" d="M482.9,646.544l.041-.041v-.763l-.041-.041h-.763l-.041.041v.763l.041.041h.763" transform="translate(-443.207 -598.653)" fill="#006a3b"/>
  <path id="Path_142" data-name="Path 142" d="M495.713,646.544l.041-.041v-.763l-.041-.041h-.763l-.051.041v.763l.051.041h.763" transform="translate(-454.706 -598.653)" fill="#006a3b"/>
  <path id="Path_143" data-name="Path 143" d="M523.341,720.7l-.041.051v.753l.041.051h.763l.051-.051v-.753l-.051-.051h-.763" transform="translate(-480.218 -666.026)" fill="#006a3b"/>
  <path id="Path_144" data-name="Path 144" d="M536.241,720.7l-.041.051v.753l.041.051H537l.041-.051v-.753L537,720.7h-.763" transform="translate(-491.806 -666.026)" fill="#006a3b"/>
  <path id="Path_145" data-name="Path 145" d="M147.051,720.7l-.051.051v.753l.051.051h.752l.051-.051v-.753l-.051-.051h-.752" transform="translate(-142.18 -666.026)" fill="#006a3b"/>
  <path id="Path_146" data-name="Path 146" d="M159.941,720.7l-.041.051v.753l.041.051h.763l.041-.051v-.753l-.041-.051h-.763" transform="translate(-153.769 -666.026)" fill="#006a3b"/>
  <path id="Path_147" data-name="Path 147" d="M614.9,646.544l.051-.041v-.763l-.051-.041h-.763l-.041.041v.763l.041.041h.763" transform="translate(-561.785 -598.653)" fill="#006a3b"/>
  <path id="Path_148" data-name="Path 148" d="M636.9,646.444l.041-.041v-.763l-.041-.041h-.763l-.041.041v.763l.041.041h.763" transform="translate(-581.548 -598.563)" fill="#006a3b"/>
  <path id="Path_149" data-name="Path 149" d="M649.7,646.444l.051-.041v-.763l-.051-.041h-.753l-.051.041v.763l.051.041h.753" transform="translate(-593.047 -598.563)" fill="#006a3b"/>
  <path id="Path_150" data-name="Path 150" d="M692.981,638.163l-.041.01-.041.041v7.036a1.608,1.608,0,0,0,.742-1.19v-6.02l-.061-.041-.6.163" transform="translate(-632.573 -591.735)" fill="#006a3b"/>
  <path id="Path_151" data-name="Path 151" d="M496.6,638.041,496.56,638l-.61.163-.041.01-.041.041v6.02l.081.275h-2.227v-3.864l-.041-.041-.641.091-.051.051v3.762h-2.156v-3.864l-.051-.041-.641.091-.041.051v3.762h-2.166v-1.241a1.779,1.779,0,0,0-3.538,0v1.241h-2.145v-3.864l-.051-.041-.641.091-.041.051v3.762h-2.145v-3.8l-.051-.041-.6.163c-.1-.051-.214-.091-.315-.132a2.628,2.628,0,0,0-.336-.1,1.693,1.693,0,0,0-.4-.041,2,2,0,0,0-.661.1,1.6,1.6,0,0,0-.529.3,1.388,1.388,0,0,0-.356.5,1.768,1.768,0,0,0-.132.681v1.556a1.618,1.618,0,0,0,.407,1.2,1.372,1.372,0,0,0,1.007.407,1.575,1.575,0,0,0,.58-.091,1.3,1.3,0,0,0,.376-.2,1.439,1.439,0,0,0,.214-.234,1.211,1.211,0,0,0,.1-.173l-.041.4v.285h5.877a1.918,1.918,0,0,0,3.294,0h8.348l.63-.142.051-.051-.234-.813-.01-6.233m-17.947,6.365c-.041.01-.1.031-.183.051s-.173.051-.264.071-.183.041-.264.061a.9.9,0,0,1-.2.031,1.46,1.46,0,0,1-.376-.051.886.886,0,0,1-.315-.183.8.8,0,0,1-.214-.336,1.46,1.46,0,0,1-.081-.5v-1.281a1.124,1.124,0,0,1,.264-.8.911.911,0,0,1,.691-.275.846.846,0,0,1,.946.966Zm8.551.031a.963.963,0,0,1-1.037,1.088.951.951,0,0,1-1.027-1.088V643.42a.943.943,0,0,1,1.027-1.078.955.955,0,0,1,1.037,1.078Z" transform="translate(-437.727 -591.735)" fill="#006a3b"/>
  <path id="Path_152" data-name="Path 152" d="M800.9,251.638c2.318.183,4.494.407,6.518.58a20.768,20.768,0,0,0-7.809-4.118c-.793.295-1.6.62-2.41.966a23.7,23.7,0,0,1,3.7,2.572" transform="translate(-726.268 -241.481)" fill="#c0932d"/>
  <path id="Path_153" data-name="Path 153" d="M609.809,248.1A20.845,20.845,0,0,0,602,252.218c2-.173,4.159-.366,6.447-.529a23.527,23.527,0,0,1,3.772-2.634c-.824-.336-1.627-.651-2.41-.956" transform="translate(-550.916 -241.481)" fill="#c0932d"/>
  <path id="Path_154" data-name="Path 154" d="M642.6,227.267a19.038,19.038,0,0,0-8,.458c1.454.407,2.959.895,4.484,1.474a26.631,26.631,0,0,1,4.311-.915c-.254-.356-.519-.691-.793-1.017" transform="translate(-580.201 -222.569)" fill="#fcb615"/>
  <path id="Path_155" data-name="Path 155" d="M799.134,282.766q.564.976,1.037,1.983a80.059,80.059,0,0,1,7.941,6.152,21.265,21.265,0,0,0-6.762-10.066c-1.19-.092-2.4-.183-3.65-.234a23.475,23.475,0,0,1,1.434,2.166" transform="translate(-726.717 -270.676)" fill="#fcb615"/>
  <path id="Path_156" data-name="Path 156" d="M782.811,229.139c1.535-.58,3.03-1.078,4.484-1.474a19.194,19.194,0,0,0-8-.458c-.264.325-.529.671-.793,1.017a27.1,27.1,0,0,1,4.311.915" transform="translate(-709.469 -222.519)" fill="#8a6d43"/>
  <path id="Path_157" data-name="Path 157" d="M609.861,281.3c-1.251.061-2.481.142-3.671.224a21.206,21.206,0,0,0-6.691,10.005,77.131,77.131,0,0,1,7.941-6.152,21.732,21.732,0,0,1,1.037-1.983,23.315,23.315,0,0,1,1.383-2.095" transform="translate(-548.67 -271.305)" fill="#8a6d43"/>
  <path id="Path_158" data-name="Path 158" d="M771.144,290.632c-.081-.041-.163-.091-.244-.132.071.824.122,1.647.153,2.491,2.552,4.118,5.958,11.134,7.067,15.272a26.069,26.069,0,0,0-2.023-14.642c-1.566-1.037-3.213-2.044-4.952-2.989" transform="translate(-702.642 -279.569)" fill="#619b42"/>
  <path id="Path_159" data-name="Path 159" d="M689.152,200.617c0-.02.02-.081.031-.132h0A20.07,20.07,0,0,0,683.6,197.8a25.675,25.675,0,0,1,3.02,3.2c.773.112,1.566.264,2.359.458.061-.295.112-.569.173-.844" transform="translate(-624.218 -196.295)" fill="#619b42"/>
  <path id="Path_160" data-name="Path 160" d="M761.1,200.295a.4.4,0,0,1,.03.132h0c.061.275.122.559.173.834.793-.193,1.586-.346,2.359-.458a25.712,25.712,0,0,1,3.03-3.2,20.32,20.32,0,0,0-5.592,2.695h0" transform="translate(-693.838 -196.115)" fill="#619b42"/>
  <path id="Path_161" data-name="Path 161" d="M662.145,290.632c-1.739.946-3.386,1.952-4.952,3a26.149,26.149,0,0,0-2.023,14.642c1.108-4.138,4.515-11.165,7.067-15.283.03-.844.081-1.678.152-2.491a1.378,1.378,0,0,1-.244.132" transform="translate(-598.421 -279.569)" fill="#619b42"/>
  <path id="Path_162" data-name="Path 162" d="M740.8,187.179A38.089,38.089,0,0,0,739.649,183a38.9,38.9,0,0,0-1.149,4.189c.386.254.773.529,1.149.824.386-.305.773-.58,1.149-.834" transform="translate(-673.536 -183)" fill="#006a3b"/>
  <path id="Path_163" data-name="Path 163" d="M729.049,279.7c-.8,1.21-1.566,2.43-2.268,3.569l-.02.02h0c-.041.8-.061,1.627-.061,2.451a50.486,50.486,0,0,0,2.349,15.882A50.483,50.483,0,0,0,731.4,285.74c0-.824-.02-1.637-.051-2.43l-.01-.01-.02-.03c-.7-1.139-1.464-2.359-2.267-3.569" transform="translate(-662.936 -269.867)" fill="#006a3b"/>
  <path id="Path_164" data-name="Path 164" d="M681.525,240.808c.7-.376,1.4-.712,2.1-1.017-.173-.234-.346-.458-.519-.691a26.632,26.632,0,0,0-4.311.915c.793.295,1.6.62,2.41.966.1-.051.2-.122.315-.173" transform="translate(-619.907 -233.396)" fill="#bf7529"/>
  <path id="Path_165" data-name="Path 165" d="M783.8,258.2c.488.549.966,1.129,1.413,1.739,1.251.061,2.471.142,3.65.234a23.033,23.033,0,0,0-3.7-2.573c-.458.193-.915.4-1.362.6" transform="translate(-714.23 -250.015)" fill="#bf7529"/>
  <path id="Path_166" data-name="Path 166" d="M773.4,239.881c.7.305,1.4.641,2.1,1.017.1.061.2.122.315.183.813-.346,1.617-.661,2.41-.966a26.634,26.634,0,0,0-4.311-.915c-.183.224-.356.447-.519.681" transform="translate(-704.888 -233.486)" fill="#6d461b"/>
  <path id="Path_167" data-name="Path 167" d="M670.535,258.29c-.458-.2-.9-.407-1.362-.59a22.9,22.9,0,0,0-3.772,2.634c1.19-.081,2.41-.163,3.671-.224a18.476,18.476,0,0,1,1.464-1.82" transform="translate(-607.869 -250.104)" fill="#6d461b"/>
  <path id="Path_168" data-name="Path 168" d="M705.215,246.3c-.1-.132-.193-.264-.295-.4-.7.305-1.4.641-2.1,1.017-.1.061-.2.122-.315.183.447.193.9.386,1.363.59.427-.488.885-.956,1.352-1.393" transform="translate(-641.197 -239.504)" fill="#6a3515"/>
  <path id="Path_169" data-name="Path 169" d="M771.852,247.69c.458-.2.9-.407,1.363-.59-.1-.061-.2-.122-.315-.183-.7-.376-1.4-.712-2.1-1.017-.1.132-.193.264-.295.4.458.437.915.9,1.352,1.393" transform="translate(-702.282 -239.504)" fill="#6a3515"/>
  <path id="Path_170" data-name="Path 170" d="M715.678,230.074c.02-.142.051-.275.081-.417-.793-.193-1.586-.346-2.359-.458.275.325.529.671.8,1.017.478-.071.976-.112,1.474-.142" transform="translate(-650.988 -224.502)" fill="#5c7233"/>
  <path id="Path_171" data-name="Path 171" d="M772.727,279.792c-.925-.041-1.871-.081-2.827-.092.031.366.071.732.1,1.108.081.041.163.091.244.132,1.739.946,3.386,1.952,4.952,3a20.518,20.518,0,0,0-1.037-1.983,21.6,21.6,0,0,0-1.434-2.166" transform="translate(-701.744 -269.867)" fill="#5c7233"/>
  <path id="Path_172" data-name="Path 172" d="M769,265.147c.956.01,1.9.051,2.827.092-.447-.61-.925-1.19-1.413-1.739-.5.224-1.007.458-1.515.7.031.305.071.62.1.946" transform="translate(-700.845 -255.315)" fill="#544f21"/>
  <path id="Path_173" data-name="Path 173" d="M722.685,237.8c-.5.031-.986.081-1.484.142.173.224.346.458.518.691.295-.122.58-.234.874-.346.031-.173.051-.336.092-.488" transform="translate(-657.995 -232.228)" fill="#544f21"/>
  <path id="Path_174" data-name="Path 174" d="M727.134,242.744c.01-.081.031-.163.041-.244-.295.112-.58.224-.874.346.1.132.193.264.295.4.173-.173.356-.336.539-.5" transform="translate(-662.577 -236.45)" fill="#302b13"/>
  <path id="Path_175" data-name="Path 175" d="M767.176,249.8c-.122.173-.254.346-.376.519.081.519.152,1.037.213,1.566.508-.244,1.017-.478,1.515-.7-.437-.478-.895-.946-1.352-1.383" transform="translate(-698.959 -243.008)" fill="#302b13"/>
  <path id="Path_176" data-name="Path 176" d="M682.9,281.157c.03-.356.061-.712.1-1.057-.976.03-1.932.071-2.878.122a24.832,24.832,0,0,0-1.383,2.095c-.386.651-.722,1.312-1.037,1.983,1.566-1.047,3.213-2.054,4.952-3,.081-.051.163-.092.244-.142" transform="translate(-618.918 -270.227)" fill="#3b4e26"/>
  <path id="Path_177" data-name="Path 177" d="M763.091,230.074c.5.031.986.081,1.474.142.264-.346.529-.681.793-1.017-.773.112-1.556.264-2.359.458.041.132.061.275.091.417" transform="translate(-695.545 -224.502)" fill="#3b4e26"/>
  <path id="Path_178" data-name="Path 178" d="M702.874,263.5a23.33,23.33,0,0,0-1.474,1.81c.946-.051,1.9-.091,2.878-.122.031-.336.071-.661.112-1-.508-.234-1.017-.468-1.515-.691" transform="translate(-640.209 -255.315)" fill="#30351b"/>
  <path id="Path_179" data-name="Path 179" d="M764.956,238.534c.173-.234.346-.458.518-.691-.5-.061-.986-.112-1.474-.142.03.163.061.315.081.478.285.122.58.234.874.356" transform="translate(-696.443 -232.138)" fill="#30351b"/>
  <path id="Path_180" data-name="Path 180" d="M764.841,242.744c.183.163.366.325.539.5.1-.132.193-.264.295-.4-.295-.122-.59-.234-.874-.346a2.068,2.068,0,0,0,.041.244" transform="translate(-697.162 -236.45)" fill="#302814"/>
  <path id="Path_181" data-name="Path 181" d="M717.629,250.329c-.122-.173-.254-.356-.376-.529-.468.437-.915.9-1.352,1.393q.747.336,1.525.7c.051-.529.122-1.057.2-1.566" transform="translate(-653.234 -243.008)" fill="#302814"/>
  <path id="Path_182" data-name="Path 182" d="M765.739,245.4c-.173-.173-.356-.336-.539-.5.061.336.112.671.163,1.017.122-.173.244-.346.376-.519" transform="translate(-697.521 -238.606)" fill="#162213"/>
  <path id="Path_183" data-name="Path 183" d="M729.2,245.4c.122.173.254.346.376.529.051-.346.1-.691.163-1.027-.183.163-.366.325-.539.5" transform="translate(-665.182 -238.606)" fill="#162213"/>
  <path id="Path_184" data-name="Path 184" d="M736.7,224.1a.543.543,0,0,0-.03.132c-.061.275-.112.559-.173.834.285.071.58.153.864.234.163-.132.325-.254.478-.376-.376-.295-.753-.569-1.139-.824h0" transform="translate(-671.74 -219.921)" fill="#01542c"/>
  <path id="Path_185" data-name="Path 185" d="M749.9,279.7h0c.793,1.22,1.556,2.43,2.267,3.569l.02.03c-.03-.844-.081-1.678-.152-2.491-.722-.386-1.434-.752-2.135-1.108" transform="translate(-683.777 -269.867)" fill="#01542c"/>
  <path id="Path_186" data-name="Path 186" d="M736.646,233.834c-.285-.081-.58-.163-.864-.234-.031.142-.051.275-.081.417.254-.02.5-.03.752-.03.071-.051.132-.1.193-.153" transform="translate(-671.021 -228.455)" fill="#064321"/>
  <path id="Path_187" data-name="Path 187" d="M749.9,279.633c.7.356,1.413.722,2.135,1.108-.031-.376-.061-.742-.1-1.108-.671-.01-1.352-.01-2.034,0" transform="translate(-683.777 -269.8)" fill="#064321"/>
  <path id="Path_188" data-name="Path 188" d="M735.307,237.856c.142-.122.295-.244.437-.356l-.752.031c-.031.163-.061.315-.091.478.132-.051.275-.112.407-.153" transform="translate(-670.302 -231.958)" fill="#0e2b17"/>
  <path id="Path_189" data-name="Path 189" d="M751.934,271.346c-.03-.315-.071-.63-.1-.946-.641.305-1.281.61-1.932.946v.01h0c.681-.02,1.362-.02,2.034-.01" transform="translate(-683.777 -261.513)" fill="#0b2c19"/>
  <path id="Path_190" data-name="Path 190" d="M734.541,241.153a2.032,2.032,0,0,0-.041.244c.152-.132.295-.275.447-.4-.132.041-.275.1-.407.153" transform="translate(-669.943 -235.103)" fill="#0c1c0f"/>
  <path id="Path_191" data-name="Path 191" d="M749.9,257.412c.651-.325,1.291-.641,1.932-.946-.061-.529-.132-1.057-.214-1.566-.59.824-1.169,1.668-1.718,2.512" transform="translate(-683.777 -247.589)" fill="#0a1d11"/>
  <path id="Path_192" data-name="Path 192" d="M729.588,279.7h0q-1.068.534-2.135,1.1c-.071.813-.122,1.647-.153,2.491l.02-.02c.7-1.139,1.464-2.359,2.267-3.569" transform="translate(-663.475 -269.867)" fill="#01542c"/>
  <path id="Path_193" data-name="Path 193" d="M750.288,225.3c.295-.081.58-.163.864-.234-.051-.285-.112-.559-.173-.834h0a1.326,1.326,0,0,1-.031-.132h0c-.386.264-.763.529-1.149.824.163.122.325.244.488.376" transform="translate(-683.687 -219.921)" fill="#01542c"/>
  <path id="Path_194" data-name="Path 194" d="M728.8,280.708c.722-.386,1.424-.752,2.135-1.108-.681.01-1.363.031-2.034.051-.041.356-.071.7-.1,1.057" transform="translate(-664.823 -269.778)" fill="#0d2d19"/>
  <path id="Path_195" data-name="Path 195" d="M755.546,234.117c-.031-.142-.051-.285-.081-.417-.285.071-.58.142-.864.234.061.051.122.1.193.153.244,0,.5.01.752.03" transform="translate(-687.999 -228.545)" fill="#0d2d19"/>
  <path id="Path_196" data-name="Path 196" d="M756.837,237.766c.132.051.275.1.417.153-.031-.163-.061-.315-.092-.478-.254-.02-.508-.031-.763-.041.153.122.295.234.437.366" transform="translate(-689.616 -231.869)" fill="#0d1f12"/>
  <path id="Path_197" data-name="Path 197" d="M731.834,271.335c-.651-.325-1.291-.641-1.922-.935-.041.325-.081.661-.112,1,.661-.03,1.342-.041,2.034-.061h0" transform="translate(-665.721 -261.513)" fill="#0b1f12"/>
  <path id="Path_198" data-name="Path 198" d="M730.8,256.566c.641.305,1.281.61,1.922.935-.559-.844-1.129-1.688-1.718-2.5-.071.508-.142,1.037-.2,1.566" transform="translate(-666.619 -247.679)" fill="#0c190f"/>
  <path id="Path_199" data-name="Path 199" d="M761.117,241.153c-.132-.051-.274-.1-.417-.153.152.132.3.264.458.407-.02-.091-.031-.173-.041-.254" transform="translate(-693.479 -235.103)" fill="#0e190e"/>
  <path id="Path_200" data-name="Path 200" d="M745.578,232.808h.02c.152-.051.315-.092.468-.132-.163-.132-.325-.254-.488-.376-.163.122-.325.254-.478.376.153.041.315.092.468.132h.01" transform="translate(-679.465 -227.287)" fill="#094722"/>
  <path id="Path_201" data-name="Path 201" d="M743.861,236.132c-.153-.051-.315-.092-.468-.132-.071.051-.132.1-.193.153.224-.01.437-.02.661-.02" transform="translate(-677.758 -230.611)" fill="#0c311b"/>
  <path id="Path_202" data-name="Path 202" d="M740,237.3c-.224,0-.437.01-.661.02-.142.122-.295.234-.437.356.376-.132.742-.254,1.108-.376H740" transform="translate(-673.896 -231.779)" fill="#0e2113"/>
  <path id="Path_203" data-name="Path 203" d="M750.561,236.053c-.061-.051-.122-.1-.193-.153-.152.041-.315.092-.468.132.224.01.447.02.661.02" transform="translate(-683.777 -230.521)" fill="#122314"/>
  <path id="Path_204" data-name="Path 204" d="M750.818,237.676c-.142-.122-.285-.244-.437-.356-.224-.01-.437-.02-.661-.02h-.02c.386.112.752.234,1.119.376" transform="translate(-683.597 -231.779)" fill="#0e1b0f"/>
  <path id="Path_205" data-name="Path 205" d="M736.184,237.983c-.152-.132-.305-.275-.458-.407-.366-.132-.732-.264-1.108-.376-.366.112-.742.244-1.108.376-.153.132-.295.264-.447.4-.061.336-.112.681-.163,1.027.59.824,1.159,1.668,1.718,2.5h.01c.559-.844,1.129-1.688,1.718-2.512-.051-.325-.1-.671-.163-1.007" transform="translate(-668.506 -231.689)" fill="#090e0a"/>
</svg>
